0.1 0.00347262
0.3 0.00217268
0.5 0.00210813
0.7 0.002089
0.9 0.00208915
1.1 0.00209491
1.3 0.00210559
1.5 0.00212194
1.7 0.00213832
1.9 0.0021515
2.1 0.00217445
2.3 0.00218936
2.5 0.00220949
2.7 0.00223247
2.9 0.00224772
3.1 0.00226705
3.3 0.00229336
3.5 0.00231363
3.7 0.00233836
3.9 0.00235934
4.1 0.00238723
4.3 0.00240667
4.5 0.00243042
4.7 0.00245556
4.9 0.00248524
5.1 0.00251277
5.3 0.00253177
5.5 0.00256604
5.7 0.00259208
5.9 0.00262623
6.1 0.00265732
6.3 0.00268768
6.5 0.00271829
6.7 0.00275004
6.9 0.00278085
7.1 0.00281354
7.3 0.0028533
7.5 0.0028846
7.7 0.00292842
7.9 0.00296585
8.1 0.00300665
8.3 0.00304253
8.5 0.00308217
8.7 0.00312857
8.9 0.00317918
9.1 0.0032196
9.3 0.00326449
9.5 0.00331491
9.7 0.00336544
9.9 0.00342478
10.1 0.00347134
10.3 0.00353533
10.5 0.00358493
10.7 0.00364211
10.9 0.00371898
11.1 0.0037733
11.3 0.00384307
11.5 0.00391923
11.7 0.00398495
11.9 0.00406819
12.1 0.00414308
12.3 0.00423921
12.5 0.00431166
12.7 0.00439438
12.9 0.00451221
13.1 0.00460851
13.3 0.00472654
13.5 0.0048455
13.7 0.00496242
13.9 0.00510659
14.1 0.00523747
14.3 0.00537701
14.5 0.00554365
14.7 0.00570576
14.9 0.00587316
15.1 0.00607708
15.3 0.00630702
15.5 0.00651366
15.7 0.00678761
15.9 0.00705806
16.1 0.00734848
16.3 0.00767547
16.5 0.00806904
16.7 0.00847977
16.9 0.00897396
17.1 0.00951205
17.3 0.0101538
17.5 0.010983
17.7 0.0118914
17.9 0.0130339
18.1 0.014521
18.3 0.0163941
18.5 0.0193127
18.7 0.023815
18.9 0.0321777
19.1 0.0508642
19.3 0.107132
19.5 0.243509
19.7 0.506219
19.9 1
